report/data/uart_dat.vcd
$version
   VCD tracing
	Hepia 2013-2014
$end

$timescale
   10us
$end

$comment
$end

$scope module Collected traces $end
$var wire	 1  sig_000 sig_000 $end
$var wire	 1  sig_001 sig_001 $end
$var wire	 1  sig_003 sig_003 $end
$var wire	 1  sig_002 sig_002 $end
$upscope $end
$enddefinitions  $end

$dumpvars
0sig_000
0sig_001
0sig_003
0sig_002
$end


#13899910
1sig_000
#13901379
0sig_000
#13904910
1sig_001
#13906164
0sig_001
#13926910
1sig_001
#13927802
0sig_001
#13948910
1sig_001
#13949803
0sig_001
#13970910
1sig_001
#13971802
0sig_001
#13992910
1sig_001
#13993803
0sig_001
#14014910
1sig_000
#14015910
0sig_000
#14015910
1sig_001
#14016801
0sig_001
#14016802
1sig_000
#14017274
0sig_000
#14036910
1sig_001
#14038164
0sig_001
#14058910
1sig_001
#14059802
0sig_001
#14080910
1sig_001
#14081803
0sig_001
#14102910
1sig_001
#14103802
0sig_001
#14124910
1sig_001
#14125803
0sig_001
#14129910
1sig_000
#14131380
0sig_000
#14146910
1sig_001
#14148163
0sig_001
#14168910
1sig_001
#14169803
0sig_001
#14190910
1sig_001
#14191802
0sig_001
#14212910
1sig_001
#14213910
0sig_001
#14213910
1sig_003
#14213912
0sig_003
#14213912
1sig_001
#14214020
0sig_001
#14223910
1sig_003
#14223912
0sig_003
#14233910
1sig_003
#14233912
0sig_003
#14234910
1sig_001
#14235802
0sig_001
#14243910
1sig_003
#14243912
0sig_003
#14244910
1sig_000
#14246379
0sig_000
#14253910
1sig_003
#14253912
0sig_003
#14256910
1sig_001
#14258164
0sig_001
#14263910
1sig_003
#14263912
0sig_003
#14273910
1sig_003
#14273912
0sig_003
#14278910
1sig_001
#14279802
0sig_001
#14283910
1sig_003
#14283912
0sig_003
#14293910
1sig_003
#14293912
0sig_003
#14300910
1sig_001
#14301803
0sig_001
#14303910
1sig_003
#14303912
0sig_003
#14313910
1sig_003
#14313912
0sig_003
#14322910
1sig_001
#14323802
0sig_001
#14323910
1sig_003
#14323912
0sig_003
#14333910
1sig_003
#14333912
0sig_003
#14343910
1sig_003
#14343912
0sig_003
#14344910
1sig_001
#14345803
0sig_001
#14353910
1sig_003
#14353912
0sig_003
#14359910
1sig_000
#14361379
0sig_000
#14363910
1sig_003
#14363912
0sig_003
#14366910
1sig_001
#14368163
0sig_001
#14373910
1sig_003
#14373912
0sig_003
#14383910
1sig_003
#14383912
0sig_003
#14388910
1sig_001
#14389803
0sig_001
#14393910
1sig_003
#14393912
0sig_003
#14403910
1sig_003
#14403912
0sig_003
#14410910
1sig_001
#14411802
0sig_001
#14413910
1sig_003
#14413912
0sig_003
#14423910
1sig_003
#14423912
0sig_003
#14432910
1sig_001
#14433803
0sig_001
#14433910
1sig_003
#14433912
0sig_003
#14443910
1sig_003
#14443912
0sig_003
#14453910
1sig_003
#14453912
0sig_003
#14454910
1sig_001
#14455802
0sig_001
#14463910
1sig_003
#14463912
0sig_003
#14473910
1sig_003
#14473912
0sig_003
#14475910
1sig_000
#14477379
0sig_000
#14477380
1sig_001
#14478634
0sig_001
#14483910
1sig_003
#14483912
0sig_003
#14493910
1sig_003
#14493912
0sig_003
#14498910
1sig_001
#14499802
0sig_001
#14503910
1sig_003
#14503912
0sig_003
#14513910
1sig_003
#14513912
0sig_003
#14520910
1sig_001
#14521803
0sig_001
#14523910
1sig_003
#14523912
0sig_003
#14533910
1sig_003
#14533912
0sig_003
#14542910
1sig_001
#14543802
0sig_001
#14543910
1sig_003
#14543912
0sig_003
#14553910
1sig_003
#14553912
0sig_003
#14563910
1sig_003
#14563912
0sig_003
#14564910
1sig_001
#14565803
0sig_001
#14573910
1sig_003
#14573912
0sig_003
#14583910
1sig_003
#14583912
0sig_003
#14586910
1sig_001
#14587802
0sig_001
#14590910
1sig_000
#14592380
0sig_000
#14593910
1sig_003
#14593912
0sig_003
#14603910
1sig_003
#14603912
0sig_003
#14608910
1sig_001
#14610164
0sig_001
#14613910
1sig_003
#14613912
0sig_003
#14623910
1sig_003
#14623912
0sig_003
#14630910
1sig_001
#14631802
0sig_001
#14633910
1sig_003
#14633912
0sig_003
#14643910
1sig_003
#14643912
0sig_003
#14652910
1sig_001
#14653803
0sig_001
#14653910
1sig_003
#14653912
0sig_003
#14663910
1sig_003
#14663912
0sig_003
#14673910
1sig_003
#14673912
0sig_003
#14674910
1sig_001
#14675802
0sig_001
#14683910
1sig_003
#14683912
0sig_003
#14693910
1sig_003
#14693912
0sig_003
#14696910
1sig_001
#14697803
0sig_001
#14703910
1sig_003
#14703912
0sig_003
#14705910
1sig_000
#14707380
0sig_000
#14713910
1sig_003
#14713912
0sig_003
#14718910
1sig_001
#14720163
0sig_001
#14723910
1sig_003
#14723912
0sig_003
#14733910
1sig_003
#14733912
0sig_003
#14740910
1sig_001
#14741803
0sig_001
#14743910
1sig_003
#14743912
0sig_003
#14753910
1sig_003
#14753912
0sig_003
#14762910
1sig_001
#14762915
0sig_001
#14762915
1sig_002
#14764416
0sig_002
#14764417
1sig_001
#14764910
0sig_001
#14764911
1sig_002
#14766412
0sig_002
#14766412
1sig_003
#14766413
0sig_003
#14766414
1sig_001
#14766910
0sig_001
#14766911
1sig_002
#14768412
0sig_002
#14768412
1sig_001
#14768532
0sig_001
#14768910
1sig_002
#14770412
0sig_002
#14770910
1sig_002
#14772412
0sig_002
#14772910
1sig_002
#14774412
0sig_002
#14774412
1sig_003
#14774413
0sig_003
#14774910
1sig_002
#14776412
0sig_002
#14776910
1sig_002
#14778412
0sig_002
#14778910
1sig_002
#14780412
0sig_002
#14780910
1sig_002
#14782412
0sig_002
#14782910
1sig_002
#14784412
0sig_002
#14784412
1sig_003
#14784413
0sig_003
#14784911
1sig_002
#14786412
0sig_002
#14786412
1sig_001
#14786910
0sig_001
#14786911
1sig_002
#14788412
0sig_002
#14788412
1sig_001
#14788808
0sig_001
#14788910
1sig_002
#14790412
0sig_002
#14790910
1sig_002
#14792412
0sig_002
#14792910
1sig_002
#14794412
0sig_002
#14794412
1sig_003
#14794413
0sig_003
#14794910
1sig_002
#14796412
0sig_002
#14796910
1sig_002
#14798412
0sig_002
#14798910
1sig_002
#14800412
0sig_002
#14800910
1sig_002
#14802412
0sig_002
#14802910
1sig_002
#14804412
0sig_002
#14804412
1sig_003
#14804413
0sig_003
#14804910
1sig_002
#14806412
0sig_002
#14806911
1sig_002
#14808412
0sig_002
#14808412
1sig_001
#14808910
0sig_001
#14808911
1sig_002
#14810412
0sig_002
#14810412
1sig_001
#14810809
0sig_001
#14810910
1sig_002
#14812412
0sig_002
#14812910
1sig_002
#14814412
0sig_002
#14814412
1sig_003
#14814413
0sig_003
#14814910
1sig_002
#14816412
0sig_002
#14816910
1sig_002
#14818412
0sig_002
#14818910
1sig_002
#14820412
0sig_002
#14820910
1sig_002
#14822412
0sig_002
#14822412
1sig_000
#14822910
0sig_000
#14822911
1sig_002
#14824412
0sig_002
#14824412
1sig_000
#14824910
0sig_000
#14824911
1sig_002
#14826412
0sig_002
#14826412
1sig_003
#14826413
0sig_003
#14826414
1sig_000
#14826893
0sig_000
#14826910
1sig_002
#14828412
0sig_002
#14828911
1sig_002
#14830412
0sig_002
#14830412
1sig_001
#14830910
0sig_001
#14830911
1sig_002
#14832412
0sig_002
#14832412
1sig_001
#14832910
0sig_001
#14832911
1sig_002
#14834412
0sig_002
#14834412
1sig_001
#14834675
0sig_001
#14834675
1sig_003
#14834676
0sig_003
#14834910
1sig_002
#14836412
0sig_002
#14836910
1sig_002
#14838412
0sig_002
#14838910
1sig_002
#14840412
0sig_002
#14840910
1sig_002
#14842412
0sig_002
#14842910
1sig_002
#14844412
0sig_002
#14844412
1sig_003
#14844413
0sig_003
#14844910
1sig_002
#14846412
0sig_002
#14846910
1sig_002
#14848412
0sig_002
#14848910
1sig_002
#14850412
0sig_002
#14850911
1sig_002
#14852412
0sig_002
#14852412
1sig_001
#14852910
0sig_001
#14852911
1sig_002
#14854412
0sig_002
#14854412
1sig_001
#14854809
0sig_001
#14854809
1sig_003
#14854810
0sig_003
#14854910
1sig_002
#14856412
0sig_002
#14856910
1sig_002
#14858412
0sig_002
#14858910
1sig_002
#14860412
0sig_002
#14860910
1sig_002
#14862412
0sig_002
#14862910
1sig_002
#14864412
0sig_002
#14864412
1sig_003
#14864413
0sig_003
#14864910
1sig_002
#14866412
0sig_002
#14866910
1sig_002
#14868412
0sig_002
#14868910
1sig_002
#14870412
0sig_002
#14870910
1sig_002
#14872412
0sig_002
#14872911
1sig_002
#14874412
0sig_002
#14874412
1sig_001
#14874910
0sig_001
#14874911
1sig_002
#14876412
0sig_002
#14876412
1sig_003
#14876413
0sig_003
#14876414
1sig_001
#14876810
0sig_001
#14876910
1sig_002
#14878412
0sig_002
#14878910
1sig_002
#14880412
0sig_002
#14880910
1sig_002
#14882412
0sig_002
#14882910
1sig_002
#14884412
0sig_002
#14884412
1sig_003
#14884413
0sig_003
#14884910
1sig_002
#14886412
0sig_002
#14886910
1sig_002
#14888412
0sig_002
#14888910
1sig_002
#14890412
0sig_002
#14890910
1sig_002
#14892412
0sig_002
#14892910
1sig_002
#14894412
0sig_002
#14894412
1sig_003
#14894413
0sig_003
#14894911
1sig_002
#14896412
0sig_002
#14896412
1sig_001
#14896910
0sig_001
#14896911
1sig_002
#14898412
0sig_002
#14898412
1sig_001
#14898809
0sig_001
#14898910
1sig_002
#14900412
0sig_002
#14900910
1sig_002
#14902412
0sig_002
#14902910
1sig_002
#14904412
0sig_002
#14904412
1sig_003
#14904413
0sig_003
#14904910
1sig_002
#14906412
0sig_002
#14906910
1sig_002
#14908412
0sig_002
#14908910
1sig_002
#14910412
0sig_002
#14910910
1sig_002
#14912412
0sig_002
#14912910
1sig_002
#14914412
0sig_002
#14914412
1sig_003
#14914413
0sig_003
#14914910
1sig_002
#14916412
0sig_002
#14916911
1sig_002
#14918412
0sig_002
#14918412
1sig_001
#14918910
0sig_001
#14918911
1sig_002
#14920412
0sig_002
#14920412
1sig_001
#14920808
0sig_001
#14920910
1sig_002
#14922412
0sig_002
#14922910
1sig_002
#14924412
0sig_002
#14924412
1sig_003
#14924413
0sig_003
#14924910
1sig_002
#14926412
0sig_002
#14926910
1sig_002
#14928412
0sig_002
#14928910
1sig_002
#14930412
0sig_002
#14930910
1sig_002
#14932412
0sig_002
#14932910
1sig_002
#14934412
0sig_002
#14934412
1sig_003
#14934413
0sig_003
#14934910
1sig_002
#14936412
0sig_002
#14936412
1sig_000
#14936910
0sig_000
#14936911
1sig_002
#14938412
0sig_002
#14938412
1sig_000
#14938911
0sig_000
#14938911
1sig_002
#14940412
0sig_002
#14940413
1sig_000
#14940891
0sig_000
#14940891
1sig_001
#14940910
0sig_001
#14940911
1sig_002
#14942412
0sig_002
#14942412
1sig_001
#14942910
0sig_001
#14942911
1sig_002
#14944412
0sig_002
#14944412
1sig_001
#14944910
0sig_001
#14944911
1sig_002
#14946412
0sig_002
#14946412
1sig_003
#14946413
0sig_003
#14946414
1sig_001
#14946659
0sig_001
#14946910
1sig_002
#14948412
0sig_002
#14948910
1sig_002
#14950412
0sig_002
#14950910
1sig_002
#14952412
0sig_002
#14952910
1sig_002
#14954412
0sig_002
#14954412
1sig_003
#14954413
0sig_003
#14954910
1sig_002
#14956412
0sig_002
#14956910
1sig_002
#14958412
0sig_002
#14958910
1sig_002
#14960412
0sig_002
#14960911
1sig_002
#14962412
0sig_002
#14962412
1sig_001
#14962910
0sig_001
#14962911
1sig_002
#14964412
0sig_002
#14964412
1sig_001
#14964808
0sig_001
#14964808
1sig_003
#14964810
0sig_003
#14964910
1sig_002
#14966412
0sig_002
#14966910
1sig_002
#14968412
0sig_002
#14968910
1sig_002
#14970412
0sig_002
#14970910
1sig_002
#14972412
0sig_002
#14972910
1sig_002
#14974412
0sig_002
#14974412
1sig_003
#14974413
0sig_003
#14974910
1sig_002
#14976412
0sig_002
#14976910
1sig_002
#14978412
0sig_002
#14978910
1sig_002
#14980412
0sig_002
#14980910
1sig_002
#14982412
0sig_002
#14982911
1sig_002
#14984412
0sig_002
#14984412
1sig_001
#14984910
0sig_001
#14984911
1sig_002
#14986412
0sig_002
#14986412
1sig_003
#14986413
0sig_003
#14986414
1sig_001
#14986811
0sig_001
#14986910
1sig_002
#14988412
0sig_002
#14988910
1sig_002
#14990412
0sig_002
#14990910
1sig_002
#14992412
0sig_002
#14992910
1sig_002
#14994412
0sig_002
#14994412
1sig_003
#14994413
0sig_003
#14994910
1sig_002
#14996412
0sig_002
#14996910
1sig_002
#14998412
0sig_002
#14998910
1sig_002
#15000412
0sig_002
#15000910
1sig_002
#15002412
0sig_002
#15002910
1sig_002
#15004412
0sig_002
#15004412
1sig_003
#15004413
0sig_003
#15004911
1sig_002
#15006412
0sig_002
#15006412
1sig_001
#15006910
0sig_001
#15006911
1sig_002
#15008412
0sig_002
#15008412
1sig_001
#15008808
0sig_001
#15008910
1sig_002
#15010412
0sig_002
#15010910
1sig_002
#15012412
0sig_002
#15012910
1sig_002
#15014412
0sig_002
#15014412
1sig_003
#15014413
0sig_003
#15014910
1sig_002
#15016412
0sig_002
#15016910
1sig_002
#15018412
0sig_002
#15018910
1sig_002
#15020412
0sig_002
#15020910
1sig_002
#15022412
0sig_002
#15022910
1sig_002
#15024412
0sig_002
#15024412
1sig_003
#15024413
0sig_003
#15024910
1sig_002
#15026412
0sig_002
#15026911
1sig_002
#15028412
0sig_002
#15028412
1sig_001
#15028910
0sig_001
#15028911
1sig_002
#15030412
0sig_002
#15030412
1sig_001
#15030809
0sig_001
#15030910
1sig_002
#15032412
0sig_002
#15032910
1sig_002
#15034412
0sig_002
#15034412
1sig_003
#15034413
0sig_003
#15034910
1sig_002
#15036412
0sig_002
#15036910
1sig_002
#15038412
0sig_002
#15038910
1sig_002
#15040412
0sig_002
#15040910
1sig_002
#15042412
0sig_002
#15042910
1sig_002
#15044412
0sig_002
#15044412
1sig_003
#15044413
0sig_003
#15044910
1sig_002
#15046412
0sig_002
#15046910
1sig_002
#15048412
0sig_002
#15048911
1sig_002
#15050412
0sig_002
#15050412
1sig_001
#15050910
0sig_001
#15050911
1sig_002
#15052412
0sig_002
#15052412
1sig_001
#15052808
0sig_001
#15052808
1sig_000
#15052910
0sig_000
#15052911
1sig_002
#15054412
0sig_002
#15054412
1sig_000
#15054910
0sig_000
#15054911
1sig_002
#15056412
0sig_002
#15056412
1sig_003
#15056413
0sig_003
#15056414
1sig_000
#15056910
0sig_000
#15056911
1sig_002
#15058412
0sig_002
#15058412
1sig_000
#15058795
0sig_000
#15058910
1sig_002
#15060412
0sig_002
#15060910
1sig_002
#15062412
0sig_002
#15062910
1sig_002
#15064412
0sig_002
#15064412
1sig_003
#15064413
0sig_003
#15064910
1sig_002
#15066412
0sig_002
#15066910
1sig_002
#15068412
0sig_002
#15068910
1sig_002
#15070412
0sig_002
#15070911
1sig_002
#15072412
0sig_002
#15072412
1sig_001
#15072910
0sig_001
#15072911
1sig_002
#15074412
0sig_002
#15074412
1sig_001
#15074910
0sig_001
#15074911
1sig_002
#15076412
0sig_002
#15076412
1sig_003
#15076413
0sig_003
#15076414
1sig_001
#15076677
0sig_001
#15076910
1sig_002
#15078412
0sig_002
#15078910
1sig_002
#15080412
0sig_002
#15080910
1sig_002
#15082412
0sig_002
#15082910
1sig_002
#15084412
0sig_002
#15084412
1sig_003
#15084413
0sig_003
#15084910
1sig_002
#15086412
0sig_002
#15086910
1sig_002
#15088412
0sig_002
#15088910
1sig_002
#15090412
0sig_002
#15090910
1sig_002
#15092412
0sig_002
#15092911
1sig_002
#15094412
0sig_002
#15094412
1sig_001
#15094910
0sig_001
#15094911
1sig_002
#15096412
0sig_002
#15096412
1sig_003
#15096413
0sig_003
#15096414
1sig_001
#15096810
0sig_001
#15096910
1sig_002
#15098412
0sig_002
#15098910
1sig_002
#15100412
0sig_002
#15100910
1sig_002
#15102412
0sig_002
#15102910
1sig_002
#15104412
0sig_002
#15104412
1sig_003
#15104413
0sig_003
#15104910
1sig_002
#15106412
0sig_002
#15106910
1sig_002
#15108412
0sig_002
#15108910
1sig_002
#15110412
0sig_002
#15110910
1sig_002
#15112412
0sig_002
#15112910
1sig_002
#15114412
0sig_002
#15114412
1sig_003
#15114413
0sig_003
#15114911
1sig_002
#15116412
0sig_002
#15116412
1sig_001
#15116910
0sig_001
#15116911
1sig_002
#15118412
0sig_002
#15118412
1sig_001
#15118809
0sig_001
#15118910
1sig_002
#15120412
0sig_002
#15120910
1sig_002
#15122412
0sig_002
#15122910
1sig_002
#15124412
0sig_002
#15124412
1sig_003
#15124413
0sig_003
#15124910
1sig_002
#15126412
0sig_002
#15126910
1sig_002
#15128412
0sig_002
#15128910
1sig_002
#15130412
0sig_002
#15130910
1sig_002
#15132412
0sig_002
#15132910
1sig_002
#15134412
0sig_002
#15134412
1sig_003
#15134413
0sig_003
#15134910
1sig_002
#15136412
0sig_002
#15136911
1sig_002
#15138412
0sig_002
#15138412
1sig_001
#15138910
0sig_001
#15138911
1sig_002
#15140412
0sig_002
#15140412
1sig_001
#15140808
0sig_001
#15140910
1sig_002
#15142412
0sig_002
#15142910
1sig_002
#15144412
0sig_002
#15144412
1sig_003
#15144413
0sig_003
#15144910
1sig_002
#15146412
0sig_002
#15146910
1sig_002
#15148412
0sig_002
#15148910
1sig_002
#15150412
0sig_002
#15150910
1sig_002
#15152412
0sig_002
#15152910
1sig_002
#15154412
0sig_002
#15154412
1sig_003
#15154413
0sig_003
#15154910
1sig_002
#15156412
0sig_002
#15156910
1sig_002
#15158412
0sig_002
#15158911
1sig_002
#15160412
0sig_002
#15160412
1sig_001
#15160910
0sig_001
#15160911
1sig_002
#15162412
0sig_002
#15162412
1sig_001
#15162809
0sig_001
#15162910
1sig_002
#15164412
0sig_002
#15164412
1sig_003
#15164413
0sig_003
#15164910
1sig_002
#15166412
0sig_002
#15166412
1sig_000
#15166910
0sig_000
#15166911
1sig_002
#15168412
0sig_002
#15168412
1sig_000
#15168910
0sig_000
#15168911
1sig_002
#15170412
0sig_002
#15170412
1sig_000
#15170890
0sig_000
#15170910
1sig_002
#15172412
0sig_002
#15172910
1sig_002
#15174412
0sig_002
#15174412
1sig_003
#15174413
0sig_003
#15174910
1sig_002
#15176412
0sig_002
#15176910
1sig_002
#15178412
0sig_002
#15178910
1sig_002
#15180412
0sig_002
#15180911
1sig_002
#15182412
0sig_002
#15182412
1sig_001
#15182910
0sig_001
#15182911
1sig_002
#15184412
0sig_002
#15184412
1sig_001
#15184910
0sig_001
#15184911
1sig_002
#15186412
0sig_002
#15186412
1sig_003
#15186413
0sig_003
#15186414
1sig_001
#15186677
0sig_001
#15186910
1sig_002
#15188412
0sig_002
#15188910
1sig_002
#15190412
0sig_002
#15190910
1sig_002
#15192412
0sig_002
#15192910
1sig_002
#15194412
0sig_002
#15194412
1sig_003
#15194413
0sig_003
#15194910
1sig_002
#15196412
0sig_002
#15196910
1sig_002
#15198412
0sig_002
#15198910
1sig_002
#15200412
0sig_002
#15200910
1sig_002
#15202412
0sig_002
#15202911
1sig_002
#15204412
0sig_002
#15204412
1sig_001
#15204910
0sig_001
#15204911
1sig_002
#15206412
0sig_002
#15206412
1sig_003
#15206413
0sig_003
#15206414
1sig_001
#15206811
0sig_001
#15206910
1sig_002
#15208412
0sig_002
#15208910
1sig_002
#15210412
0sig_002
#15210910
1sig_002
#15212412
0sig_002
#15212910
1sig_002
#15214412
0sig_002
#15214412
1sig_003
#15214413
0sig_003
#15214910
1sig_002
#15216412
0sig_002
#15216910
1sig_002
#15218412
0sig_002
#15218910
1sig_002
#15220412
0sig_002
#15220910
1sig_002
#15222412
0sig_002
#15222910
1sig_002
#15224412
0sig_002
#15224412
1sig_003
#15224413
0sig_003
#15224911
1sig_002
#15226412
0sig_002
#15226412
1sig_001
#15226910
0sig_001
#15226911
1sig_002
#15228412
0sig_002
#15228412
1sig_001
#15228808
0sig_001
#15228910
1sig_002
#15230412
0sig_002
#15230910
1sig_002
#15232412
0sig_002
#15232910
1sig_002
#15234412
0sig_002
#15234412
1sig_003
#15234413
0sig_003
#15234910
1sig_002
#15236412
0sig_002
#15236910
1sig_002
#15238412
0sig_002
#15238910
1sig_002
#15240412
0sig_002
#15240910
1sig_002
#15242412
0sig_002
#15242910
1sig_002
#15244412
0sig_002
#15244412
1sig_003
#15244413
0sig_003
#15244910
1sig_002
#15246412
0sig_002
#15246911
1sig_002
#15248412
0sig_002
#15248412
1sig_001
#15248910
0sig_001
#15248911
1sig_002
#15250412
0sig_002
#15250412
1sig_001
#15250809
0sig_001
#15250910
1sig_002
#15252412
0sig_002
#15252910
1sig_002
#15254412
0sig_002
#15254412
1sig_003
#15254413
0sig_003
#15254910
1sig_002
#15256412
0sig_002
#15256910
1sig_002
#15258412
0sig_002
#15258910
1sig_002
#15260412
0sig_002
#15260910
1sig_002
#15262412
0sig_002
#15262910
1sig_002
#15264412
0sig_002
#15264412
1sig_003
#15264413
0sig_003
#15264910
1sig_002
#15266412
0sig_002
#15266910
1sig_002
#15268412
0sig_002
#15268911
1sig_002
#15270412
0sig_002
#15270412
1sig_001
#15270910
0sig_001
#15270911
1sig_002
#15272412
0sig_002
#15272412
1sig_001
#15272808
0sig_001
#15272910
1sig_002
#15274412
0sig_002
#15274412
1sig_003
#15274413
0sig_003
#15274910
1sig_002
#15276412
0sig_002
#15276910
1sig_002
#15278412
0sig_002
#15278910
1sig_002
#15280412
0sig_002
#15280910
1sig_002
#15282412
0sig_002
#15282412
1sig_000
#15282910
0sig_000
#15282911
1sig_002
#15284412
0sig_002
#15284412
1sig_000
#15284910
0sig_000
#15284911
1sig_002
#15286412
0sig_002
#15286412
1sig_003
#15286413
0sig_003
#15286414
1sig_000
#15286893
0sig_000
#15286910
1sig_002
#15288412
0sig_002
#15288910
1sig_002
#15290412
0sig_002
#15290911
1sig_002
#15292412
0sig_002
#15292412
1sig_001
#15292910
0sig_001
#15292911
1sig_002
#15294412
0sig_002
#15294412
1sig_001
#15294910
0sig_001
#15294911
1sig_002
#15296412
0sig_002
#15296412
1sig_003
#15296413
0sig_003
#15296414
1sig_001
#15296677
0sig_001
#15296910
1sig_002
#15298412
0sig_002
#15298910
1sig_002
#15300412
0sig_002
#15300910
1sig_002
#15302412
0sig_002
#15302910
1sig_002
#15304412
0sig_002
#15304412
1sig_003
#15304413
0sig_003
#15304910
1sig_002
#15306412
0sig_002
#15306910
1sig_002
#15308412
0sig_002
#15308910
1sig_002
#15310412
0sig_002
#15310910
1sig_002
#15312412
0sig_002
#15312911
1sig_002
#15314412
0sig_002
#15314412
1sig_001
#15314910
0sig_001
#15314911
1sig_002
#15316412
0sig_002
#15316412
1sig_003
#15316413
0sig_003
#15316414
1sig_001
#15316810
0sig_001
#15316910
1sig_002
#15318412
0sig_002
#15318910
1sig_002
#15320412
0sig_002
#15320910
1sig_002
#15322412
0sig_002
#15322910
1sig_002
#15324412
0sig_002
#15324412
1sig_003
#15324413
0sig_003
#15324910
1sig_002
#15326412
0sig_002
#15326910
1sig_002
#15328412
0sig_002
#15328910
1sig_002
#15330412
0sig_002
#15330910
1sig_002
#15332412
0sig_002
#15332910
1sig_002
#15334412
0sig_002
#15334412
1sig_003
#15334413
0sig_003
#15334911
1sig_002
#15336412
0sig_002
#15336412
1sig_001
#15336910
0sig_001
#15336911
1sig_002
#15338412
0sig_002
#15338412
1sig_001
#15338809
0sig_001
#15338910
1sig_002
#15340412
0sig_002
#15340910
1sig_002
#15342412
0sig_002
#15342910
1sig_002
#15344412
0sig_002
#15344412
1sig_003
#15344413
0sig_003
#15344910
1sig_002
#15346412
0sig_002
#15346910
1sig_002
#15348412
0sig_002
#15348910
1sig_002
#15350412
0sig_002
#15350910
1sig_002
#15352412
0sig_002
#15352910
1sig_002
#15354412
0sig_002
#15354412
1sig_003
#15354413
0sig_003
#15354910
1sig_002
#15356412
0sig_002
#15356911
1sig_002
#15358412
0sig_002
#15358412
1sig_001
#15358910
0sig_001
#15358911
1sig_002
#15360412
0sig_002
#15360412
1sig_001
#15360808
0sig_001
#15360910
1sig_002
#15362412
0sig_002
#15362910
1sig_002
#15364412
0sig_002
#15364412
1sig_003
#15364413
0sig_003
#15364910
1sig_002
#15366412
0sig_002
#15366910
1sig_002
#15368412
0sig_002
#15368910
1sig_002
#15370412
0sig_002
#15370910
1sig_002
#15372412
0sig_002
#15372910
1sig_002
#15374412
0sig_002
#15374412
1sig_003
#15374413
0sig_003
#15374910
1sig_002
#15376412
0sig_002
#15376910
1sig_002
#15378412
0sig_002
#15378911
1sig_002
#15380412
0sig_002
#15380412
1sig_001
#15380910
0sig_001
#15380911
1sig_002
#15382412
0sig_002
#15382412
1sig_001
#15382809
0sig_001
#15382910
1sig_002
#15384412
0sig_002
#15384412
1sig_003
#15384413
0sig_003
#15384910
1sig_002
#15386412
0sig_002
#15386910
1sig_002
#15388412
0sig_002
#15388910
1sig_002
#15390412
0sig_002
#15390910
1sig_002
#15392412
0sig_002
#15392910
1sig_002
#15394412
0sig_002
#15394412
1sig_003
#15394413
0sig_003
#15394910
1sig_002
#15396412
0sig_002
#15396910
1sig_002
#15398412
0sig_002
#15398412
1sig_000
#15398910
0sig_000
#15398911
1sig_002
#15400412
0sig_002
#15400412
1sig_000
#15400911
0sig_000
#15400911
1sig_002
#15402412
0sig_002
#15402412
1sig_000
#15402890
0sig_000
#15402891
1sig_001
#15402910
0sig_001
#15402911
1sig_002
#15404412
0sig_002
#15404412
1sig_001
#15404910
0sig_001
#15404911
1sig_002
#15406412
0sig_002
#15406412
1sig_003
#15406413
0sig_003
#15406414
1sig_001
#15406910
0sig_001
#15406911
1sig_002
#15408412
0sig_002
#15408412
1sig_001
#15408659
0sig_001
#15408910
1sig_002
#15410412
0sig_002
#15410910
1sig_002
#15412412
0sig_002
#15412910
1sig_002
#15414412
0sig_002
#15414412
1sig_003
#15414413
0sig_003
#15414910
1sig_002
#15416412
0sig_002
#15416910
1sig_002
#15418412
0sig_002
#15418910
1sig_002
#15420412
0sig_002
#15420910
1sig_002
#15422412
0sig_002
#15422911
1sig_002
#15424412
0sig_002
#15424412
1sig_001
#15424910
0sig_001
#15424911
1sig_002
#15426412
0sig_002
#15426412
1sig_003
#15426413
0sig_003
#15426414
1sig_001
#15426811
0sig_001
#15426910
1sig_002
#15428412
0sig_002
#15428910
1sig_002
#15430412
0sig_002
#15430910
1sig_002
#15432412
0sig_002
#15432910
1sig_002
#15434412
0sig_002
#15434412
1sig_003
#15434413
0sig_003
#15434910
1sig_002
#15436412
0sig_002
#15436910
1sig_002
#15438412
0sig_002
#15438910
1sig_002
#15440412
0sig_002
#15440910
1sig_002
#15442412
0sig_002
#15442910
1sig_002
#15444412
0sig_002
#15444412
1sig_003
#15444413
0sig_003
#15444911
1sig_002
#15446412
0sig_002
#15446412
1sig_001
#15446910
0sig_001
#15446911
1sig_002
#15448412
0sig_002
#15448412
1sig_001
#15448808
0sig_001
#15448910
1sig_002
#15450412
0sig_002
#15450910
1sig_002
#15452412
0sig_002
#15452910
1sig_002
#15454412
0sig_002
#15454412
1sig_003
#15454413
0sig_003
#15454910
1sig_002
#15456412
0sig_002
#15456910
1sig_002
#15458412
0sig_002
#15458910
1sig_002
#15460412
0sig_002
#15460910
1sig_002
#15462412
0sig_002
#15462910
1sig_002
#15464412
0sig_002
#15464412
1sig_003
#15464413
0sig_003
#15464910
1sig_002
#15466412
0sig_002
#15466911
1sig_002
#15468412
0sig_002
#15468412
1sig_001
#15468910
0sig_001
#15468911
1sig_002
#15470412
0sig_002
#15470412
1sig_001
#15470809
0sig_001
#15470910
1sig_002
#15472412
0sig_002
#15472910
1sig_002
#15474412
0sig_002
#15474412
1sig_003
#15474413
0sig_003
#15474910
1sig_002
#15476412
0sig_002
#15476910
1sig_002
#15478412
0sig_002
#15478910
1sig_002
#15480412
0sig_002
#15480910
1sig_002
#15482412
0sig_002
#15482910
1sig_002
#15484412
0sig_002
#15484412
1sig_003
#15484413
0sig_003
#15484910
1sig_002
#15486412
0sig_002
#15486910
1sig_002
#15488412
0sig_002
#15488911
1sig_002
#15490412
0sig_002
#15490412
1sig_001
#15490910
0sig_001
#15490911
1sig_002
#15492412
0sig_002
#15492412
1sig_001
#15492808
0sig_001
#15492910
1sig_002
#15494412
0sig_002
#15494412
1sig_003
#15494413
0sig_003
#15494910
1sig_002
#15496412
0sig_002
#15496910
1sig_002
#15498412
0sig_002
#15498910
1sig_002
#15500412
0sig_002
#15500910
1sig_002
#15502412
0sig_002
#15502910
1sig_002
#15504412
0sig_002
#15504412
1sig_003
#15504413
0sig_003
#15504910
1sig_002
#15506412
0sig_002
#15506910
1sig_002
#15508412
0sig_002
#15508911
1sig_002
#15510412
0sig_002
#15510911
1sig_002
#15512412
0sig_002
#15512413
1sig_001
#15512910
0sig_001
#15512911
1sig_002
#15514412
0sig_002
#15514412
1sig_000
#15514910
0sig_000
#15514911
1sig_002
#15516412
0sig_002
#15516412
1sig_001
#15516911
0sig_001
#15516911
1sig_002
#15518412
0sig_002
#15518412
1sig_003
#15518414
0sig_003
#15518414
1sig_000
#15518910
0sig_000
#15518911
1sig_002
#15520412
0sig_002
#15520412
1sig_001
#15520910
0sig_001
#15520911
1sig_002
#15522412
0sig_002
#15522412
1sig_000
#15522910
0sig_000
#15522911
1sig_002
#15524412
0sig_002
#15524412
1sig_001
#15524910
0sig_001
#15524911
1sig_002
#15526412
0sig_002
#15526412
1sig_000
#15526425
0sig_000
#15526426
1sig_003
#15526427
0sig_003
#15526427
1sig_001
#15526910
0sig_001
#15526911
1sig_002
#15528412
0sig_002
#15528412
1sig_001
#15528690
0sig_001
#15528910
1sig_002
#15530412
0sig_002
