report/data/uart_dat.vcd
$version
   VCD tracing
	Hepia 2013-2014
$end

$timescale
   10us
$end

$comment
$end

$scope module Collected traces $end
$var wire	 1  sig_001 sig_001 $end
$var wire	 1  sig_000 sig_000 $end
$var wire	 1  sig_003 sig_003 $end
$var wire	 1  sig_002 sig_002 $end
$upscope $end
$enddefinitions  $end

$dumpvars
0sig_001
0sig_000
0sig_003
0sig_002
$end


#2516125
1sig_001
#2517018
0sig_001
#2561125
1sig_001
#2562018
0sig_001
#2585125
1sig_000
#2586595
0sig_000
#2606125
1sig_001
#2607378
0sig_001
#2651125
1sig_001
#2652016
0sig_001
#2696125
1sig_001
#2697018
0sig_001
#2700125
1sig_000
#2701596
0sig_000
#2741125
1sig_001
#2742379
0sig_001
#2786125
1sig_001
#2787017
0sig_001
#2815125
1sig_000
#2816595
0sig_000
#2831125
1sig_001
#2832125
0sig_001
#2832126
1sig_003
#2832127
0sig_003
#2832127
1sig_001
#2832387
0sig_001
#2842126
1sig_003
#2842127
0sig_003
#2852126
1sig_003
#2852127
0sig_003
#2862126
1sig_003
#2862127
0sig_003
#2872126
1sig_003
#2872127
0sig_003
#2876126
1sig_001
#2877229
0sig_001
#2882126
1sig_003
#2882127
0sig_003
#2892126
1sig_003
#2892127
0sig_003
#2902126
1sig_003
#2902127
0sig_003
#2912126
1sig_003
#2912127
0sig_003
#2921126
1sig_001
#2922018
0sig_001
#2922126
1sig_003
#2922127
0sig_003
#2931125
1sig_000
#2932595
0sig_000
#2932595
1sig_003
#2932596
0sig_003
#2942126
1sig_003
#2942127
0sig_003
#2952126
1sig_003
#2952127
0sig_003
#2962126
1sig_003
#2962127
0sig_003
#2966126
1sig_001
#2967378
0sig_001
#2972126
1sig_003
#2972127
0sig_003
#2982126
1sig_003
#2982127
0sig_003
#2992126
1sig_003
#2992127
0sig_003
#3002126
1sig_003
#3002127
0sig_003
#3011126
1sig_001
#3012016
0sig_001
#3012126
1sig_003
#3012127
0sig_003
#3022126
1sig_003
#3022127
0sig_003
#3032126
1sig_003
#3032127
0sig_003
#3042126
1sig_003
#3042127
0sig_003
#3046125
1sig_000
#3047595
0sig_000
#3052126
1sig_003
#3052127
0sig_003
#3056126
1sig_001
#3056129
0sig_001
#3056130
1sig_002
#3057631
0sig_002
#3057631
1sig_001
#3058126
0sig_001
#3058126
1sig_002
#3059627
0sig_002
#3059628
1sig_001
#3060126
0sig_001
#3060126
1sig_002
#3061627
0sig_002
#3061627
1sig_001
#3061894
0sig_001
#3062126
1sig_002
#3063627
0sig_002
#3063627
1sig_003
#3063629
0sig_003
#3064126
1sig_002
#3065627
0sig_002
#3066126
1sig_002
#3067627
0sig_002
#3068126
1sig_002
#3069627
0sig_002
#3070126
1sig_002
#3071627
0sig_002
#3072126
1sig_002
#3073627
0sig_002
#3073627
1sig_003
#3073628
0sig_003
#3074126
1sig_002
#3075627
0sig_002
#3076126
1sig_002
#3077627
0sig_002
#3078126
1sig_002
#3079627
0sig_002
#3080126
1sig_002
#3081627
0sig_002
#3082126
1sig_002
#3083627
0sig_002
#3083627
1sig_003
#3083629
0sig_003
#3084126
1sig_002
#3085627
0sig_002
#3086126
1sig_002
#3087627
0sig_002
#3088126
1sig_002
#3089627
0sig_002
#3090126
1sig_002
#3091627
0sig_002
#3092126
1sig_002
#3093627
0sig_002
#3093627
1sig_003
#3093628
0sig_003
#3094126
1sig_002
#3095627
0sig_002
#3096126
1sig_002
#3097627
0sig_002
#3098126
1sig_002
#3099627
0sig_002
#3100126
1sig_002
#3101627
0sig_002
#3101627
1sig_001
#3102126
0sig_001
#3102126
1sig_002
#3103627
0sig_002
#3103628
1sig_001
#3104125
0sig_001
#3104126
1sig_002
#3105627
0sig_002
#3105627
1sig_003
#3105628
0sig_003
#3105629
1sig_001
#3105741
0sig_001
#3106126
1sig_002
#3107627
0sig_002
#3108126
1sig_002
#3109627
0sig_002
#3110126
1sig_002
#3111627
0sig_002
#3112126
1sig_002
#3113627
0sig_002
#3113627
1sig_003
#3113628
0sig_003
#3114126
1sig_002
#3115627
0sig_002
#3116126
1sig_002
#3117627
0sig_002
#3118126
1sig_002
#3119627
0sig_002
#3120126
1sig_002
#3121627
0sig_002
#3122126
1sig_002
#3123627
0sig_002
#3123627
1sig_003
#3123629
0sig_003
#3124126
1sig_002
#3125627
0sig_002
#3126126
1sig_002
#3127627
0sig_002
#3128126
1sig_002
#3129627
0sig_002
#3130126
1sig_002
#3131627
0sig_002
#3132126
1sig_002
#3133627
0sig_002
#3133627
1sig_003
#3133628
0sig_003
#3134126
1sig_002
#3135627
0sig_002
#3136126
1sig_002
#3137627
0sig_002
#3138126
1sig_002
#3139627
0sig_002
#3140126
1sig_002
#3141627
0sig_002
#3142126
1sig_002
#3143627
0sig_002
#3143627
1sig_003
#3143629
0sig_003
#3144126
1sig_002
#3145627
0sig_002
#3146126
1sig_002
#3147627
0sig_002
#3147627
1sig_001
#3148126
0sig_001
#3148126
1sig_002
#3149627
0sig_002
#3149627
1sig_001
#3150024
0sig_001
#3150126
1sig_002
#3151627
0sig_002
#3152126
1sig_002
#3153627
0sig_002
#3153627
1sig_003
#3153628
0sig_003
#3154126
1sig_002
#3155627
0sig_002
#3156126
1sig_002
#3157627
0sig_002
#3158126
1sig_002
#3159627
0sig_002
#3160126
1sig_002
#3161627
0sig_002
#3161627
1sig_000
#3162126
0sig_000
#3162126
1sig_002
#3163627
0sig_002
#3163628
1sig_000
#3164126
0sig_000
#3164126
1sig_002
#3165627
0sig_002
#3165627
1sig_003
#3165628
0sig_003
#3165629
1sig_000
#3166109
0sig_000
#3166126
1sig_002
#3167627
0sig_002
#3168126
1sig_002
#3169627
0sig_002
#3170126
1sig_002
#3171627
0sig_002
#3172126
1sig_002
#3173627
0sig_002
#3173627
1sig_003
#3173628
0sig_003
#3174126
1sig_002
#3175627
0sig_002
#3176126
1sig_002
#3177627
0sig_002
#3178126
1sig_002
#3179627
0sig_002
#3180126
1sig_002
#3181627
0sig_002
#3182126
1sig_002
#3183627
0sig_002
#3183627
1sig_003
#3183629
0sig_003
#3184126
1sig_002
#3185627
0sig_002
#3186126
1sig_002
#3187627
0sig_002
#3188126
1sig_002
#3189627
0sig_002
#3190126
1sig_002
#3191627
0sig_002
#3191627
1sig_001
#3192126
0sig_001
#3192126
1sig_002
#3193627
0sig_002
#3193627
1sig_001
#3194125
0sig_001
#3194126
1sig_002
#3195627
0sig_002
#3195627
1sig_003
#3195629
0sig_003
#3195629
1sig_001
#3195892
0sig_001
#3196126
1sig_002
#3197627
0sig_002
#3198126
1sig_002
#3199627
0sig_002
#3200126
1sig_002
#3201627
0sig_002
#3202126
1sig_002
#3203627
0sig_002
#3203627
1sig_003
#3203629
0sig_003
#3204126
1sig_002
#3205627
0sig_002
#3206126
1sig_002
#3207627
0sig_002
#3208126
1sig_002
#3209627
0sig_002
#3210126
1sig_002
#3211627
0sig_002
#3212126
1sig_002
#3213627
0sig_002
#3213627
1sig_003
#3213628
0sig_003
#3214126
1sig_002
#3215627
0sig_002
#3216126
1sig_002
#3217627
0sig_002
#3218126
1sig_002
#3219627
0sig_002
#3220126
1sig_002
#3221627
0sig_002
#3222126
1sig_002
#3223627
0sig_002
#3223627
1sig_003
#3223629
0sig_003
#3224126
1sig_002
#3225627
0sig_002
#3226126
1sig_002
#3227627
0sig_002
#3228126
1sig_002
#3229627
0sig_002
#3230126
1sig_002
#3231627
0sig_002
#3232126
1sig_002
#3233627
0sig_002
#3233627
1sig_003
#3233628
0sig_003
#3234126
1sig_002
#3235627
0sig_002
#3236126
1sig_002
#3237627
0sig_002
#3237627
1sig_001
#3238126
0sig_001
#3238126
1sig_002
#3239627
0sig_002
#3239628
1sig_001
#3240023
0sig_001
#3240126
1sig_002
#3241627
0sig_002
#3242126
1sig_002
#3243627
0sig_002
#3243627
1sig_003
#3243629
0sig_003
#3244126
1sig_002
#3245627
0sig_002
#3246126
1sig_002
#3247627
0sig_002
#3248126
1sig_002
#3249627
0sig_002
#3250126
1sig_002
#3251627
0sig_002
#3252126
1sig_002
#3253627
0sig_002
#3253627
1sig_003
#3253628
0sig_003
#3254126
1sig_002
#3255627
0sig_002
#3256126
1sig_002
#3257627
0sig_002
#3258126
1sig_002
#3259627
0sig_002
#3260126
1sig_002
#3261627
0sig_002
#3262126
1sig_002
#3263627
0sig_002
#3263627
1sig_003
#3263629
0sig_003
#3264126
1sig_002
#3265627
0sig_002
#3266126
1sig_002
#3267627
0sig_002
#3268126
1sig_002
#3269627
0sig_002
#3270126
1sig_002
#3271627
0sig_002
#3272126
1sig_002
#3273627
0sig_002
#3273627
1sig_003
#3273628
0sig_003
#3274126
1sig_002
#3275627
0sig_002
#3276126
1sig_002
#3277627
0sig_002
#3277627
1sig_000
#3278126
0sig_000
#3278126
1sig_002
#3279627
0sig_002
#3279628
1sig_000
#3280126
0sig_000
#3280126
1sig_002
#3281627
0sig_002
#3281627
1sig_000
#3282105
0sig_000
#3282106
1sig_001
#3282126
0sig_001
#3282126
1sig_002
#3283627
0sig_002
#3283628
1sig_001
#3284125
0sig_001
#3284126
1sig_002
#3285627
0sig_002
#3285627
1sig_003
#3285628
0sig_003
#3285629
1sig_001
#3286126
0sig_001
#3286126
1sig_002
#3287627
0sig_002
#3287627
1sig_001
#3287873
0sig_001
#3288126
1sig_002
#3289627
0sig_002
#3290126
1sig_002
#3291627
0sig_002
#3292126
1sig_002
#3293627
0sig_002
#3293627
1sig_003
#3293628
0sig_003
#3294126
1sig_002
#3295627
0sig_002
#3296126
1sig_002
#3297627
0sig_002
#3298126
1sig_002
#3299627
0sig_002
#3300126
1sig_002
#3301627
0sig_002
#3302126
1sig_002
#3303627
0sig_002
#3303627
1sig_003
#3303629
0sig_003
#3304126
1sig_002
#3305627
0sig_002
#3306126
1sig_002
#3307627
0sig_002
#3308126
1sig_002
#3309627
0sig_002
#3310126
1sig_002
#3311627
0sig_002
#3312126
1sig_002
#3313627
0sig_002
#3313627
1sig_003
#3313628
0sig_003
#3314126
1sig_002
#3315627
0sig_002
#3316126
1sig_002
#3317627
0sig_002
#3318126
1sig_002
#3319627
0sig_002
#3320126
1sig_002
#3321627
0sig_002
#3322126
1sig_002
#3323627
0sig_002
#3323627
1sig_003
#3323629
0sig_003
#3324126
1sig_002
#3325627
0sig_002
#3326126
1sig_002
#3327627
0sig_002
#3327627
1sig_001
#3328126
0sig_001
#3328126
1sig_002
#3329627
0sig_002
#3329627
1sig_001
#3330024
0sig_001
#3330126
1sig_002
#3331627
0sig_002
#3332126
1sig_002
#3333627
0sig_002
#3333627
1sig_003
#3333628
0sig_003
#3334126
1sig_002
#3335627
0sig_002
#3336126
1sig_002
#3337627
0sig_002
#3338126
1sig_002
#3339627
0sig_002
#3340126
1sig_002
#3341627
0sig_002
#3342126
1sig_002
#3343627
0sig_002
#3343627
1sig_003
#3343629
0sig_003
#3344126
1sig_002
#3345627
0sig_002
#3346126
1sig_002
#3347627
0sig_002
#3348126
1sig_002
#3349627
0sig_002
#3350126
1sig_002
#3351627
0sig_002
#3352126
1sig_002
#3353627
0sig_002
#3353627
1sig_003
#3353628
0sig_003
#3354126
1sig_002
#3355627
0sig_002
#3356126
1sig_002
#3357627
0sig_002
#3358126
1sig_002
#3359627
0sig_002
#3360126
1sig_002
#3361627
0sig_002
#3362126
1sig_002
#3363627
0sig_002
#3363627
1sig_003
#3363629
0sig_003
#3364126
1sig_002
#3365627
0sig_002
#3366126
1sig_002
#3367627
0sig_002
#3368126
1sig_002
#3369627
0sig_002
#3370126
1sig_002
#3371627
0sig_002
#3371627
1sig_001
#3372126
0sig_001
#3372126
1sig_002
#3373627
0sig_002
#3373627
1sig_001
#3374024
0sig_001
#3374024
1sig_003
#3374025
0sig_003
#3374126
1sig_002
#3375627
0sig_002
#3376126
1sig_002
#3377627
0sig_002
#3378126
1sig_002
#3379627
0sig_002
#3380126
1sig_002
#3381627
0sig_002
#3382126
1sig_002
#3383627
0sig_002
#3383627
1sig_003
#3383629
0sig_003
#3384126
1sig_002
#3385627
0sig_002
#3386126
1sig_002
#3387627
0sig_002
#3388126
1sig_002
#3389627
0sig_002
#3390126
1sig_002
#3391627
0sig_002
#3391627
1sig_000
#3392126
0sig_000
#3392126
1sig_002
#3393627
0sig_002
#3393628
1sig_000
#3394126
0sig_000
#3394126
1sig_002
#3395627
0sig_002
#3395627
1sig_003
#3395629
0sig_003
#3395629
1sig_000
#3396108
0sig_000
#3396126
1sig_002
#3397627
0sig_002
#3398126
1sig_002
#3399627
0sig_002
#3400126
1sig_002
#3401627
0sig_002
#3402126
1sig_002
#3403627
0sig_002
#3403627
1sig_003
#3403629
0sig_003
#3404126
1sig_002
#3405627
0sig_002
#3406126
1sig_002
#3407627
0sig_002
#3408126
1sig_002
#3409627
0sig_002
#3410126
1sig_002
#3411627
0sig_002
#3412126
1sig_002
#3413627
0sig_002
#3413627
1sig_003
#3413628
0sig_003
#3414126
1sig_002
#3415627
0sig_002
#3416126
1sig_002
#3417627
0sig_002
#3417627
1sig_001
#3418126
0sig_001
#3418126
1sig_002
#3419627
0sig_002
#3419628
1sig_001
#3420126
0sig_001
#3420126
1sig_002
#3421627
0sig_002
#3421627
1sig_001
#3421890
0sig_001
#3422126
1sig_002
#3423627
0sig_002
#3423627
1sig_003
#3423629
0sig_003
#3424126
1sig_002
#3425627
0sig_002
#3426126
1sig_002
#3427627
0sig_002
#3428126
1sig_002
#3429627
0sig_002
#3430126
1sig_002
#3431627
0sig_002
#3432126
1sig_002
#3433627
0sig_002
#3433627
1sig_003
#3433628
0sig_003
#3434126
1sig_002
#3435627
0sig_002
#3436126
1sig_002
#3437627
0sig_002
#3438126
1sig_002
#3439627
0sig_002
#3440126
1sig_002
#3441627
0sig_002
#3442126
1sig_002
#3443627
0sig_002
#3443627
1sig_003
#3443629
0sig_003
#3444126
1sig_002
#3445627
0sig_002
#3446126
1sig_002
#3447627
0sig_002
#3448126
1sig_002
#3449627
0sig_002
#3450126
1sig_002
#3451627
0sig_002
#3452126
1sig_002
#3453627
0sig_002
#3453627
1sig_003
#3453628
0sig_003
#3454126
1sig_002
#3455627
0sig_002
#3456126
1sig_002
#3457627
0sig_002
#3458126
1sig_002
#3459627
0sig_002
#3460126
1sig_002
#3461627
0sig_002
#3461627
1sig_001
#3462126
0sig_001
#3462126
1sig_002
#3463627
0sig_002
#3463628
1sig_001
#3464023
0sig_001
#3464024
1sig_003
#3464025
0sig_003
#3464126
1sig_002
#3465627
0sig_002
#3466126
1sig_002
#3467627
0sig_002
#3468126
1sig_002
#3469627
0sig_002
#3470126
1sig_002
#3471627
0sig_002
#3472126
1sig_002
#3473627
0sig_002
#3473627
1sig_003
#3473628
0sig_003
#3474126
1sig_002
#3475627
0sig_002
#3476126
1sig_002
#3477627
0sig_002
#3478126
1sig_002
#3479627
0sig_002
#3480126
1sig_002
#3481627
0sig_002
#3482126
1sig_002
#3483627
0sig_002
#3483627
1sig_003
#3483629
0sig_003
#3484126
1sig_002
#3485627
0sig_002
#3486126
1sig_002
#3487627
0sig_002
#3488126
1sig_002
#3489627
0sig_002
#3490126
1sig_002
#3491627
0sig_002
#3492126
1sig_002
#3493627
0sig_002
#3493627
1sig_003
#3493628
0sig_003
#3494126
1sig_002
#3495627
0sig_002
#3496126
1sig_002
#3497627
0sig_002
#3498126
1sig_002
#3499627
0sig_002
#3500126
1sig_002
#3501627
0sig_002
#3502126
1sig_002
#3503627
0sig_002
#3503627
1sig_003
#3503629
0sig_003
#3504126
1sig_002
#3505627
0sig_002
#3506126
1sig_002
#3507627
0sig_002
#3507627
1sig_001
#3508126
0sig_001
#3508126
1sig_002
#3509627
0sig_002
#3509627
1sig_000
#3510126
0sig_000
#3510126
1sig_002
#3511627
0sig_002
#3511628
1sig_001
#3512022
0sig_001
#3512023
1sig_000
#3512126
0sig_000
#3512126
1sig_002
#3513627
0sig_002
#3513628
1sig_000
#3514126
0sig_000
#3514126
1sig_002
#3515627
0sig_002
#3515628
1sig_003
#3515629
0sig_003
#3515629
1sig_000
#3516009
0sig_000
#3516126
1sig_002
#3517627
0sig_002
#3518126
1sig_002
#3519627
0sig_002
#3520126
1sig_002
#3521627
0sig_002
#3522126
1sig_002
#3523627
0sig_002
#3523627
1sig_003
#3523629
0sig_003
#3524126
1sig_002
#3525627
0sig_002
#3526126
1sig_002
#3527627
0sig_002
#3528126
1sig_002
#3529627
0sig_002
#3530126
1sig_002
#3531627
0sig_002
#3532126
1sig_002
#3533627
0sig_002
#3533627
1sig_003
#3533628
0sig_003
#3534126
1sig_002
#3535627
0sig_002
#3536126
1sig_002
#3537627
0sig_002
#3538126
1sig_002
#3539627
0sig_002
#3540126
1sig_002
#3541627
0sig_002
#3542126
1sig_002
#3543627
0sig_002
#3543627
1sig_003
#3543629
0sig_003
#3544126
1sig_002
#3545627
0sig_002
#3546126
1sig_002
#3547627
0sig_002
#3548126
1sig_002
#3549627
0sig_002
#3550126
1sig_002
#3551627
0sig_002
#3551627
1sig_001
#3552126
0sig_001
#3552126
1sig_002
#3553627
0sig_002
#3553627
1sig_001
#3554125
0sig_001
#3554126
1sig_002
#3555627
0sig_002
#3555627
1sig_003
#3555629
0sig_003
#3555629
1sig_001
#3555892
0sig_001
#3556126
1sig_002
#3557627
0sig_002
#3558126
1sig_002
#3559627
0sig_002
#3560126
1sig_002
#3561627
0sig_002
#3562126
1sig_002
#3563627
0sig_002
#3563627
1sig_003
#3563629
0sig_003
#3564126
1sig_002
#3565627
0sig_002
#3566126
1sig_002
#3567627
0sig_002
#3568126
1sig_002
#3569627
0sig_002
#3570126
1sig_002
#3571627
0sig_002
#3572126
1sig_002
#3573627
0sig_002
#3573627
1sig_003
#3573628
0sig_003
#3574126
1sig_002
#3575627
0sig_002
#3576126
1sig_002
#3577627
0sig_002
#3578126
1sig_002
#3579627
0sig_002
#3580126
1sig_002
#3581627
0sig_002
#3582126
1sig_002
#3583627
0sig_002
#3583627
1sig_003
#3583629
0sig_003
#3584126
1sig_002
#3585627
0sig_002
#3586126
1sig_002
#3587627
0sig_002
#3588126
1sig_002
#3589627
0sig_002
#3590126
1sig_002
#3591627
0sig_002
#3592126
1sig_002
#3593627
0sig_002
#3593627
1sig_003
#3593628
0sig_003
#3594126
1sig_002
#3595627
0sig_002
#3596126
1sig_002
#3597627
0sig_002
#3597627
1sig_001
#3598126
0sig_001
#3598126
1sig_002
#3599627
0sig_002
#3599628
1sig_001
#3600023
0sig_001
#3600126
1sig_002
#3601627
0sig_002
#3602126
1sig_002
#3603627
0sig_002
#3603627
1sig_003
#3603629
0sig_003
#3604126
1sig_002
#3605627
0sig_002
#3606126
1sig_002
#3607627
0sig_002
#3608126
1sig_002
#3609627
0sig_002
#3610126
1sig_002
#3611627
0sig_002
#3612126
1sig_002
#3613627
0sig_002
#3613627
1sig_003
#3613628
0sig_003
#3614126
1sig_002
#3615627
0sig_002
#3616126
1sig_002
#3617627
0sig_002
#3618126
1sig_002
#3619627
0sig_002
#3620126
1sig_002
#3621627
0sig_002
#3621627
1sig_000
#3622126
0sig_000
#3622126
1sig_002
#3623627
0sig_002
#3623628
1sig_000
#3624126
0sig_000
#3624126
1sig_002
#3625627
0sig_002
#3625627
1sig_003
#3625628
0sig_003
#3625629
1sig_000
#3626108
0sig_000
#3626126
1sig_002
#3627627
0sig_002
#3628126
1sig_002
#3629627
0sig_002
#3630126
1sig_002
#3631627
0sig_002
#3632126
1sig_002
#3633627
0sig_002
#3633627
1sig_003
#3633628
0sig_003
#3634126
1sig_002
#3635627
0sig_002
#3636126
1sig_002
#3637627
0sig_002
#3638126
1sig_002
#3639627
0sig_002
#3640126
1sig_002
#3641627
0sig_002
#3641627
1sig_001
#3642126
0sig_001
#3642126
1sig_002
#3643627
0sig_002
#3643628
1sig_001
#3644125
0sig_001
#3644126
1sig_002
#3645627
0sig_002
#3645627
1sig_003
#3645628
0sig_003
#3645629
1sig_001
#3645892
0sig_001
#3646126
1sig_002
#3647627
0sig_002
#3648126
1sig_002
#3649627
0sig_002
#3650126
1sig_002
#3651627
0sig_002
#3652126
1sig_002
#3653627
0sig_002
#3653627
1sig_003
#3653628
0sig_003
#3654126
1sig_002
#3655627
0sig_002
#3656126
1sig_002
#3657627
0sig_002
#3658126
1sig_002
#3659627
0sig_002
#3660126
1sig_002
#3661627
0sig_002
#3662126
1sig_002
#3663627
0sig_002
#3663627
1sig_003
#3663629
0sig_003
#3664126
1sig_002
#3665627
0sig_002
#3666126
1sig_002
#3667627
0sig_002
#3668126
1sig_002
#3669627
0sig_002
#3670126
1sig_002
#3671627
0sig_002
#3672126
1sig_002
#3673627
0sig_002
#3673627
1sig_003
#3673628
0sig_003
#3674126
1sig_002
#3675627
0sig_002
#3676126
1sig_002
#3677627
0sig_002
#3678126
1sig_002
#3679627
0sig_002
#3680126
1sig_002
#3681627
0sig_002
#3682126
1sig_002
#3683627
0sig_002
#3683627
1sig_003
#3683629
0sig_003
#3684126
1sig_002
#3685627
0sig_002
#3686126
1sig_002
#3687627
0sig_002
#3687627
1sig_001
#3688126
0sig_001
#3688126
1sig_002
#3689627
0sig_002
#3689627
1sig_001
#3690024
0sig_001
#3690126
1sig_002
#3691627
0sig_002
#3692126
1sig_002
#3693627
0sig_002
#3693627
1sig_003
#3693628
0sig_003
#3694126
1sig_002
#3695627
0sig_002
#3696126
1sig_002
#3697627
0sig_002
#3698126
1sig_002
#3699627
0sig_002
#3700126
1sig_002
#3701627
0sig_002
#3702126
1sig_002
#3703627
0sig_002
#3703627
1sig_003
#3703629
0sig_003
#3704126
1sig_002
#3705627
0sig_002
#3706126
1sig_002
#3707627
0sig_002
#3708126
1sig_002
#3709627
0sig_002
#3710126
1sig_002
#3711627
0sig_002
#3712126
1sig_002
#3713627
0sig_002
#3713627
1sig_003
#3713628
0sig_003
#3714126
1sig_002
#3715627
0sig_002
#3716126
1sig_002
#3717627
0sig_002
#3718126
1sig_002
#3719627
0sig_002
#3720126
1sig_002
#3721627
0sig_002
#3722126
1sig_002
#3723627
0sig_002
#3723627
1sig_003
#3723629
0sig_003
#3724126
1sig_002
#3725627
0sig_002
#3726126
1sig_002
#3727627
0sig_002
#3728126
1sig_002
#3729627
0sig_002
#3730126
1sig_002
#3731627
0sig_002
#3731627
1sig_001
#3732126
0sig_001
#3732126
1sig_002
#3733627
0sig_002
#3733627
1sig_001
#3734024
0sig_001
#3734024
1sig_003
#3734026
0sig_003
#3734126
1sig_002
#3735627
0sig_002
#3736126
1sig_002
#3737627
0sig_002
#3737627
1sig_000
#3738126
0sig_000
#3738126
1sig_002
#3739627
0sig_002
#3739627
1sig_000
#3740126
0sig_000
#3740126
1sig_002
#3741627
0sig_002
#3741627
1sig_000
#3742126
0sig_000
#3742126
1sig_002
#3743628
0sig_002
#3743628
1sig_000
#3743645
0sig_000
#3743646
1sig_003
#3743647
0sig_003
#3744126
1sig_002
#3745627
0sig_002
#3746126
1sig_002
#3747627
0sig_002
#3748126
1sig_002
#3749627
0sig_002
#3750126
1sig_002
#3751627
0sig_002
#3752126
1sig_002
#3753627
0sig_002
#3753627
1sig_003
#3753629
0sig_003
#3754126
1sig_002
#3755627
0sig_002
#3756126
1sig_002
#3757627
0sig_002
#3758126
1sig_002
#3759627
0sig_002
#3760126
1sig_002
#3761627
0sig_002
#3762126
1sig_002
#3763627
0sig_002
#3763627
1sig_003
#3763629
0sig_003
#3764126
1sig_002
#3765627
0sig_002
#3766126
1sig_002
#3767627
0sig_002
#3768126
1sig_002
#3769627
0sig_002
#3770126
1sig_002
#3771627
0sig_002
#3772126
1sig_002
#3773627
0sig_002
#3773627
1sig_003
#3773628
0sig_003
#3774126
1sig_002
#3775627
0sig_002
#3776126
1sig_002
#3777627
0sig_002
#3777627
1sig_001
#3778126
0sig_001
#3778126
1sig_002
#3779627
0sig_002
#3779628
1sig_001
#3780126
0sig_001
#3780126
1sig_002
#3781627
0sig_002
#3781627
1sig_001
#3781903
0sig_001
#3782126
1sig_002
#3783627
0sig_002
#3783627
1sig_003
#3783629
0sig_003
#3784126
1sig_002
#3785627
0sig_002
#3786126
1sig_002
#3787627
0sig_002
#3788126
1sig_002
#3789627
0sig_002
#3790126
1sig_002
#3791627
0sig_002
#3792126
1sig_002
#3793627
0sig_002
#3793627
1sig_003
#3793628
0sig_003
#3794126
1sig_002
#3795627
0sig_002
#3796126
1sig_002
#3797627
0sig_002
#3798126
1sig_002
#3799627
0sig_002
#3800126
1sig_002
#3801627
0sig_002
#3802126
1sig_002
#3803627
0sig_002
#3803627
1sig_003
#3803629
0sig_003
#3804126
1sig_002
#3805627
0sig_002
#3806126
1sig_002
#3807627
0sig_002
#3808126
1sig_002
#3809627
0sig_002
#3810126
1sig_002
#3811627
0sig_002
#3812126
1sig_002
#3813627
0sig_002
#3813627
1sig_003
#3813628
0sig_003
#3814126
1sig_002
#3815627
0sig_002
#3816126
1sig_002
#3817627
0sig_002
#3818126
1sig_002
#3819627
0sig_002
#3820126
1sig_002
#3821627
0sig_002
#3821627
1sig_001
#3822126
0sig_001
#3822126
1sig_002
#3823627
0sig_002
#3823628
1sig_001
#3824125
0sig_001
#3824126
1sig_002
#3825627
0sig_002
#3825627
1sig_003
#3825628
0sig_003
#3825629
1sig_001
#3826126
0sig_001
#3826126
1sig_002
#3827627
0sig_002
#3827627
1sig_001
#3828126
0sig_001
#3828126
1sig_002
#3829627
0sig_002
#3829627
1sig_001
#3830126
0sig_001
#3830126
1sig_002
#3831627
0sig_002
#3831628
1sig_001
#3831847
0sig_001
#3832126
1sig_002
#3833627
0sig_002
#3833627
1sig_003
#3833628
0sig_003
#3834126
1sig_002
#3835627
0sig_002
#3836126
1sig_002
#3837627
0sig_002
#3838126
1sig_002
#3839627
0sig_002
#3840126
1sig_002
#3841627
0sig_002
#3842126
1sig_002
#3843627
0sig_002
#3843627
1sig_003
#3843629
0sig_003
#3844126
1sig_002
#3845627
0sig_002
#3846126
1sig_002
#3847627
0sig_002
#3848126
1sig_002
#3849627
0sig_002
#3850126
1sig_002
#3851627
0sig_002
#3852126
1sig_002
#3853627
0sig_002
#3853627
1sig_000
#3854126
0sig_000
#3854126
1sig_002
#3855627
0sig_002
#3855627
1sig_003
#3855629
0sig_003
#3855629
1sig_000
#3856126
0sig_000
#3856126
1sig_002
#3857627
0sig_002
#3857627
1sig_000
#3858109
0sig_000
#3858126
1sig_002
#3859627
0sig_002
#3860126
1sig_002
#3861627
0sig_002
#3862126
1sig_002
#3863627
0sig_002
#3863627
1sig_003
#3863629
0sig_003
#3864126
1sig_002
#3865627
0sig_002
#3866126
1sig_002
#3867627
0sig_002
#3867627
1sig_001
#3868126
0sig_001
#3868126
1sig_002
#3869627
0sig_002
#3869627
1sig_001
#3870126
0sig_001
#3870126
1sig_002
#3871627
0sig_002
#3871628
1sig_001
#3871904
0sig_001
#3872126
1sig_002
#3873627
0sig_002
#3873627
1sig_003
#3873628
0sig_003
#3874126
1sig_002
#3875627
0sig_002
#3876126
1sig_002
#3877627
0sig_002
#3878126
1sig_002
#3879627
0sig_002
#3880126
1sig_002
#3881627
0sig_002
#3882126
1sig_002
#3883627
0sig_002
#3883627
1sig_003
#3883629
0sig_003
#3884126
1sig_002
#3885627
0sig_002
#3886126
1sig_002
#3887627
0sig_002
#3888126
1sig_002
#3889627
0sig_002
#3890126
1sig_002
#3891627
0sig_002
#3892126
1sig_002
#3893627
0sig_002
#3893627
1sig_003
#3893628
0sig_003
#3894126
1sig_002
#3895627
0sig_002
#3896126
1sig_002
#3897627
0sig_002
#3898126
1sig_002
#3899627
0sig_002
#3900126
1sig_002
#3901627
0sig_002
#3902126
1sig_002
#3903627
0sig_002
#3903627
1sig_003
#3903629
0sig_003
#3904126
1sig_002
#3905627
0sig_002
#3906126
1sig_002
#3907627
0sig_002
#3908126
1sig_002
#3909627
0sig_002
#3910126
1sig_002
#3911627
0sig_002
#3911627
1sig_001
#3912126
0sig_001
#3912126
1sig_002
#3913627
0sig_002
#3913627
1sig_001
#3914125
0sig_001
#3914126
1sig_002
#3915627
0sig_002
#3915627
1sig_003
#3915629
0sig_003
#3915629
1sig_001
#3916126
0sig_001
#3916126
1sig_002
#3917627
0sig_002
#3917627
1sig_001
#3918126
0sig_001
#3918126
1sig_002
#3919627
0sig_002
#3919628
1sig_001
#3920126
0sig_001
#3920126
1sig_002
#3921627
0sig_002
#3921627
1sig_001
#3921849
0sig_001
#3922126
1sig_002
#3923627
0sig_002
#3923627
1sig_003
#3923629
0sig_003
#3924126
1sig_002
#3925627
0sig_002
#3926126
1sig_002
#3927627
0sig_002
#3928126
1sig_002
#3929627
0sig_002
#3930126
1sig_002
#3931627
0sig_002
#3932126
1sig_002
#3933627
0sig_002
#3933627
1sig_003
#3933628
0sig_003
#3934126
1sig_002
#3935627
0sig_002
#3936126
1sig_002
#3937627
0sig_002
#3938126
1sig_002
#3939627
0sig_002
#3940126
1sig_002
#3941627
0sig_002
#3942126
1sig_002
#3943627
0sig_002
#3943627
1sig_003
#3943629
0sig_003
#3944126
1sig_002
#3945627
0sig_002
#3946126
1sig_002
#3947627
0sig_002
#3948126
1sig_002
#3949627
0sig_002
#3950126
1sig_002
#3951627
0sig_002
#3952126
1sig_002
#3953627
0sig_002
#3953627
1sig_003
#3953628
0sig_003
#3954126
1sig_002
#3955627
0sig_002
#3956126
1sig_002
#3957627
0sig_002
#3957627
1sig_001
#3958126
0sig_001
#3958126
1sig_002
#3959627
0sig_002
#3959628
1sig_001
#3960126
0sig_001
#3960126
1sig_002
#3961627
0sig_002
#3961627
1sig_001
#3962126
0sig_001
#3962126
1sig_002
#3963627
0sig_002
#3963628
1sig_001
#3964125
0sig_001
#3964126
1sig_002
#3965627
0sig_002
